{
  "project_info": {
    "project_number": "343397407136",
    "firebase_url": "https://travellerdelight-2e669.firebaseio.com",
    "project_id": "travellerdelight-2e669",
    "storage_bucket": "travellerdelight-2e669.appspot.com"
  },
  "client": [
    {
      "client_info": {
        "mobilesdk_app_id": "1:343397407136:android:de4bf399e1f5962486ecc5",
        "android_client_info": {
          "package_name": "com.travellerdelight"
        }
      },
      "oauth_client": [
        {
          "client_id": "343397407136-8i674ioj95bn2rl7ld8034hv22kpblqt.apps.googleusercontent.com",
          "client_type": 1,
          "android_info": {
            "package_name": "com.travellerdelight",
            "certificate_hash": "fe0412e89feb7ba8682326db392afc0be3539100"
          }
        },
        {
          "client_id": "343397407136-suitfl0jn472dc9sg1nvdrk1b2uf73tj.apps.googleusercontent.com",
          "client_type": 3
        }
      ],
      "api_key": [
        {
          "current_key": "AIzaSyAdPT1uqmqHAkh6r2O02iTPalG7_Y7VRvg"
        }
      ],
      "services": {
        "appinvite_service": {
          "other_platform_oauth_client": [
            {
              "client_id": "343397407136-suitfl0jn472dc9sg1nvdrk1b2uf73tj.apps.googleusercontent.com",
              "client_type": 3
            }
          ]
        }
      }
    }
  ],
  "configuration_version": "1"
}